{
  "objects": [
    {
      "output": {
        "ref": "DestinationRDSTable"
      },
      "input": {
        "ref": "S3InputDataLocation"
      },
      "dependsOn": {
        "ref": "RdsMySqlTableCreateActivity"
      },
      "name": "DataLoadActivity",
      "id": "DataLoadActivity",
      "runsOn": {
        "ref": "Ec2Instance"
      },
      "type": "CopyActivity"
    },
    {
      "connectionString": "#{myRDSConnectStr}",
      "*password": "#{*myRDSPassword}",
      "name": "DestinationRDSTable",
      "insertQuery": "#{myRDSTableInsertSql}",
      "id": "DestinationRDSTable",
      "type": "MySqlDataNode",
      "table": "#{myRDSTableName}",
      "selectQuery": "select * from #{table}",
      "username": "#{myRDSUsername}"
    },
    {
      "failureAndRerunMode": "CASCADE",
      "resourceRole": "DataPipelineDefaultResourceRole",
      "role": "DataPipelineDefaultRole",
      "pipelineLogUri": "s3://ahri-import/logs/",
      "scheduleType": "ONDEMAND",
      "name": "Default",
      "id": "Default"
    },
    {
      "subnetId": "subnet-8e4ec6a4",
      "instanceType": "t1.micro",
      "name": "Ec2Instance",
      "actionOnTaskFailure": "terminate",
      "securityGroups": "#{myEc2RdsSecurityGrps}",
      "id": "Ec2Instance",
      "type": "Ec2Resource",
      "terminateAfter": "2 Hours"
    },
    {
      "scriptUri": "s3://datapipeline-us-east-1/sample-scripts/rdsmytbl.sh",
      "dependsOn": {
        "ref": "DataLoadActivity"
      },
      "name": "Copy missing References",
      "id": "ShellCommandActivityId_iyZOW",
      "scriptArgument": [
        "--rds_jdbc=#{myRDSConnectStr}",
        "--rds_pwd=#{*myRDSPassword}",
        "--rds_usr=#{myRDSUsername}",
        "--my_sqle=SELECT * FROM AHRI_BOILERS LIMIT 1;"
      ],
      "runsOn": {
        "ref": "Ec2Instance"
      },
      "type": "ShellCommandActivity"
    },
    {
      "scriptUri": "s3://datapipeline-us-east-1/sample-scripts/rdsmytbl.sh",
      "name": "RdsMySqlTableCreateActivity",
      "scriptArgument": [
        "--rds_jdbc=#{myRDSConnectStr}",
        "--rds_pwd=#{*myRDSPassword}",
        "--rds_usr=#{myRDSUsername}",
        "--my_sqle=#{myRDSCreateTableSql}"
      ],
      "runsOn": {
        "ref": "Ec2Instance"
      },
      "id": "RdsMySqlTableCreateActivity",
      "type": "ShellCommandActivity"
    },
    {
      "name": "DataFormat1",
      "id": "DataFormat1",
      "type": "CSV"
    },
    {
      "directoryPath": "#{myInputS3Loc}",
      "dataFormat": {
        "ref": "DataFormat1"
      },
      "name": "S3InputDataLocation",
      "id": "S3InputDataLocation",
      "type": "S3DataNode"
    }
  ],
  "parameters": [
    {
      "description": "RDS MySQL password",
      "id": "*myRDSPassword",
      "type": "String"
    },
    {
      "watermark": "security group name",
      "helpText": "The names of one or more EC2 security groups that have access to the RDS MySQL cluster.",
      "description": "RDS MySQL security group(s)",
      "isArray": "true",
      "optional": "true",
      "id": "myEc2RdsSecurityGrps",
      "type": "String"
    },
    {
      "description": "RDS MySQL username",
      "id": "myRDSUsername",
      "type": "String"
    },
    {
      "description": "Input S3 file path",
      "id": "myInputS3Loc",
      "type": "AWS::S3::ObjectKey"
    },
    {
      "helpText": "The SQL statement to insert data into the RDS MySQL table.",
      "watermark": "INSERT INTO #{table} (col1, col2, col3) VALUES(?, ?, ?) ;",
      "description": "Insert SQL query",
      "id": "myRDSTableInsertSql",
      "type": "String"
    },
    {
      "helpText": "The name of an existing table or a new table that will be created based on the create table SQL query parameter below.",
      "description": "RDS MySQL table name",
      "id": "myRDSTableName",
      "type": "String"
    },
    {
      "watermark": "jdbc:mysql://dbinstance.id.region.rds.amazonaws.com:3306/dbname",
      "description": "RDS MySQL connection string",
      "id": "myRDSConnectStr",
      "type": "String"
    },
    {
      "watermark": "CREATE TABLE pet IF NOT EXISTS (name VARCHAR(20), owner VARCHAR(20), species VARCHAR(20), gender CHAR(1), birth DATE, death DATE);",
      "helpText": "The idempotent SQL statement to create the RDS MySQL table if it does not already exist.",
      "description": "Create table SQL query",
      "optional": "true",
      "id": "myRDSCreateTableSql",
      "type": "String"
    }
  ],
  "values": {
    "myRDSUsername": "{{USERNAME}}",
    "myRDSConnectStr": "{{ENDPOINT}}",
    "myRDSTableInsertSql": "{{INSERT}}",
    "*myRDSPassword": "{{PASSWORD}}",
    "myRDSTableName": "{{TABLENAME}}",
    "myInputS3Loc": "{{S3FILEPATH}}"
  }
}